…
#### 4. group_by 와 summarise

: group_by - 지정한 변수들 기준으로 그룹화, summarise - 통계치 계산

``` r
Cars93 %>% group_by(Manufacturer) %>% 
  summarise(mean_Price = mean(Price), max_Weight=max(Weight))
```

    ## # A tibble: 32 × 3
    ##    Manufacturer mean_Price max_Weight
    ##    <fct>             <dbl>      <int>
    ##  1 Acura              24.9       3560
    ##  2 Audi               33.4       3405
    ##  3 BMW                30         3640
    ##  4 Buick              21.6       4105
    ##  5 Cadillac           37.4       3935
    ##  6 Chevrolet          18.2       4025
    ##  7 Chrylser           18.4       3515
    ##  8 Chrysler           22.6       3570
    ##  9 Dodge              15.7       3805
    ## 10 Eagle              15.8       3490
    ## # ℹ 22 more rows
…
#### 6. arrange

: 특정 열 기준으로 데이터 정렬

``` r
data("Cars93")
Cars93 %>% 
  filter(Type %in% c("Middle", "Small")) %>% 
  dplyr::select(Model,Type,Weight,Price) %>% 
  group_by(Type) %>% 
  mutate(Weight_lv=ifelse(Weight<median(Weight),'low','high')) %>% 
  arrange(Price)
```

    ## # A tibble: 21 × 5
    ## # Groups:   Type [1]
    ##    Model   Type  Weight Price Weight_lv
    ##    <fct>   <fct>  <int> <dbl> <chr>    
    ##  1 Festiva Small   1845   7.4 low      
    ##  2 Excel   Small   2345   8   high     
    ##  3 323     Small   2325   8.3 low      
    ##  4 Metro   Small   1695   8.4 low      
    ##  5 Justy   Small   2045   8.4 low      
    ##  6 Swift   Small   1965   8.6 low      
    ##  7 LeMans  Small   2350   9   high     
    ##  8 Fox     Small   2240   9.1 low      
    ##  9 Colt    Small   2270   9.2 low      
    ## 10 Tercel  Small   2055   9.8 low      
    ## # ℹ 11 more rows
…
